{
  "listen_port": 8080,
  "max_block_age": "60s",
  "thorchain": {
    "tendermint_url": "http://localhost:27147/websocket",
    "thornode_url": "http://localhost:1317/mayachain",
    "last_chain_backoff": "7s",
    "fetch_batch_size": 100,
    "parallelism": 4,
    "read_timeout": "32s"
  },
  "blockstore":{
  },
  "timescale": {
    "host": "localhost",
    "port": 5432,
    "user_name": "midgard",
    "password": "password",
    "database": "midgard",
    "sslmode": "disable",
    "commit_batch_size": 100,
    "max_open_conns": 80
  },
  "websockets": {
    "enable": false,
    "connection_limit": 100
  },
  "usdpools": [
    "ETH.USDT-0X62E273709DA575835C7F6AEF4A31140CA5B1D190",
    "ETH.USDC-0XA0B86991C6218B36C1D19D4A2E9EB0CE3606EB48"
  ]
}
