{
 "AVAX.AVAX": {
  "decimals": 18,
  "asset_seen": [
   "mayachain-mainnet",
   "mayachain-stagenet",
   "midgard-mainnet",
   "midgard-stagenet",
   "constants"
  ],
  "decimal_source": [
   "constants"
  ]
 },
 "AVAX.USDC-0XB97EF9EF8734C71904D8002F8B6BC66DD9C48A6E": {
  "decimals": 6,
  "asset_seen": [
   "mayachain-mainnet",
   "midgard-mainnet",
   "constants"
  ],
  "decimal_source": [
   "mayachain-mainnet",
   "constants"
  ]
 },
 "AVAX.USDT-0X9702230A8EA53601F5CD2DC00FDBC13D4DF4A8C7": {
  "decimals": 6,
  "asset_seen": [
   "midgard-mainnet",
   "constants"
  ],
  "decimal_source": [
   "constants"
  ]
 },
 "AVAX/AVAX": {
  "decimals": -1,
  "asset_seen": [
   "midgard-mainnet"
  ],
  "decimal_source": []
 },
 "AVAX/USDC-0XB97EF9EF8734C71904D8002F8B6BC66DD9C48A6E": {
  "decimals": -1,
  "asset_seen": [
   "midgard-mainnet"
  ],
  "decimal_source": []
 },
 "BCH.BCH": {
  "decimals": 8,
  "asset_seen": [
   "mayachain-mainnet",
   "mayachain-stagenet",
   "midgard-mainnet",
   "midgard-stagenet",
   "constants"
  ],
  "decimal_source": [
   "constants"
  ]
 },
 "BCH/BCH": {
  "decimals": -1,
  "asset_seen": [
   "midgard-mainnet"
  ],
  "decimal_source": []
 },
 "BNB.ADA-9F4": {
  "decimals": 8,
  "asset_seen": [
   "mayachain-mainnet",
   "midgard-mainnet",
   "constants"
  ],
  "decimal_source": [
   "constants"
  ]
 },
 "BNB.AERGO-46B": {
  "decimals": -1,
  "asset_seen": [
   "midgard-mainnet"
  ],
  "decimal_source": []
 },
 "BNB.AVA-645": {
  "decimals": 8,
  "asset_seen": [
   "mayachain-mainnet",
   "midgard-mainnet",
   "constants"
  ],
  "decimal_source": [
   "constants"
  ]
 },
 "BNB.AWC-986": {
  "decimals": -1,
  "asset_seen": [
   "midgard-mainnet"
  ],
  "decimal_source": []
 },
 "BNB.BNB": {
  "decimals": 8,
  "asset_seen": [
   "mayachain-mainnet",
   "mayachain-stagenet",
   "midgard-mainnet",
   "midgard-stagenet",
   "constants"
  ],
  "decimal_source": [
   "constants"
  ]
 },
 "BNB.BTCB-1DE": {
  "decimals": 8,
  "asset_seen": [
   "mayachain-mainnet",
   "midgard-mainnet",
   "constants"
  ],
  "decimal_source": [
   "constants"
  ]
 },
 "BNB.BULL-BE4": {
  "decimals": -1,
  "asset_seen": [
   "midgard-mainnet"
  ],
  "decimal_source": []
 },
 "BNB.BUSD-74E": {
  "decimals": 8,
  "asset_seen": [
   "constants"
  ],
  "decimal_source": [
   "constants"
  ]
 },
 "BNB.BUSD-BD1": {
  "decimals": 8,
  "asset_seen": [
   "mayachain-mainnet",
   "midgard-mainnet",
   "constants"
  ],
  "decimal_source": [
   "constants"
  ]
 },
 "BNB.CAKE-435": {
  "decimals": -1,
  "asset_seen": [
   "midgard-mainnet"
  ],
  "decimal_source": []
 },
 "BNB.CAS-167": {
  "decimals": -1,
  "asset_seen": [
   "midgard-mainnet"
  ],
  "decimal_source": []
 },
 "BNB.DOT-64C": {
  "decimals": -1,
  "asset_seen": [
   "midgard-mainnet"
  ],
  "decimal_source": []
 },
 "BNB.EQL-586": {
  "decimals": -1,
  "asset_seen": [
   "midgard-mainnet"
  ],
  "decimal_source": []
 },
 "BNB.ETH-1C9": {
  "decimals": 8,
  "asset_seen": [
   "mayachain-mainnet",
   "midgard-mainnet",
   "constants"
  ],
  "decimal_source": [
   "constants"
  ]
 },
 "BNB.ETHBULL-D33": {
  "decimals": -1,
  "asset_seen": [
   "midgard-mainnet"
  ],
  "decimal_source": []
 },
 "BNB.EVT-49B": {
  "decimals": -1,
  "asset_seen": [
   "midgard-mainnet"
  ],
  "decimal_source": []
 },
 "BNB.FRM-DE7": {
  "decimals": -1,
  "asset_seen": [
   "midgard-mainnet"
  ],
  "decimal_source": []
 },
 "BNB.FTM-A64": {
  "decimals": -1,
  "asset_seen": [
   "midgard-mainnet"
  ],
  "decimal_source": []
 },
 "BNB.NEXO-A84": {
  "decimals": -1,
  "asset_seen": [
   "midgard-mainnet"
  ],
  "decimal_source": []
 },
 "BNB.SLV-986": {
  "decimals": -1,
  "asset_seen": [
   "midgard-mainnet"
  ],
  "decimal_source": []
 },
 "BNB.TWT-8C2": {
  "decimals": 8,
  "asset_seen": [
   "mayachain-mainnet",
   "midgard-mainnet",
   "constants"
  ],
  "decimal_source": [
   "constants"
  ]
 },
 "BNB.USDT-6D8": {
  "decimals": -1,
  "asset_seen": [
   "midgard-mainnet"
  ],
  "decimal_source": []
 },
 "BNB.XRP-BF2": {
  "decimals": -1,
  "asset_seen": [
   "midgard-mainnet"
  ],
  "decimal_source": []
 },
 "BNB/BNB": {
  "decimals": -1,
  "asset_seen": [
   "midgard-mainnet",
   "midgard-stagenet"
  ],
  "decimal_source": []
 },
 "BNB/BUSD-BD1": {
  "decimals": -1,
  "asset_seen": [
   "midgard-mainnet"
  ],
  "decimal_source": []
 },
 "BSC.BNB": {
  "decimals": 18,
  "asset_seen": [
   "mayachain-mainnet",
   "mayachain-stagenet",
   "midgard-mainnet",
   "midgard-stagenet",
   "constants"
  ],
  "decimal_source": [
   "constants"
  ]
 },
 "BSC.BUSD-0XE9E7CEA3DEDCA5984780BAFC599BD69ADD087D56": {
  "decimals": -1,
  "asset_seen": [
   "mayachain-stagenet",
   "midgard-mainnet",
   "midgard-stagenet"
  ],
  "decimal_source": []
 },
 "BSC.USDC-0X8AC76A51CC950D9822D68B83FE1AD97B32CD580D": {
  "decimals": 18,
  "asset_seen": [
   "mayachain-mainnet",
   "midgard-mainnet",
   "constants"
  ],
  "decimal_source": [
   "constants"
  ]
 },
 "BSC/BNB": {
  "decimals": -1,
  "asset_seen": [
   "midgard-mainnet"
  ],
  "decimal_source": []
 },
 "BTC.BTC": {
  "decimals": 8,
  "asset_seen": [
   "mayachain-mainnet",
   "mayachain-stagenet",
   "midgard-mainnet",
   "midgard-stagenet",
   "constants"
  ],
  "decimal_source": [
   "constants"
  ]
 },
 "BTC/BTC": {
  "decimals": -1,
  "asset_seen": [
   "midgard-mainnet",
   "midgard-stagenet"
  ],
  "decimal_source": []
 },
 "DOGE.DOGE": {
  "decimals": 8,
  "asset_seen": [
   "mayachain-mainnet",
   "mayachain-stagenet",
   "midgard-mainnet",
   "midgard-stagenet",
   "constants"
  ],
  "decimal_source": [
   "constants"
  ]
 },
 "DOGE/DOGE": {
  "decimals": -1,
  "asset_seen": [
   "midgard-mainnet"
  ],
  "decimal_source": []
 },
 "ETH.AAVE-0X7FC66500C84A76AD7E9C93437BFC5AC33E2DDAE9": {
  "decimals": 18,
  "asset_seen": [
   "mayachain-mainnet",
   "midgard-mainnet"
  ],
  "decimal_source": [
   "ERC20"
  ]
 },
 "ETH.ALCX-0XDBDB4D16EDA451D0503B854CF79D55697F90C8DF": {
  "decimals": 18,
  "asset_seen": [
   "mayachain-mainnet",
   "midgard-mainnet"
  ],
  "decimal_source": [
   "ERC20"
  ]
 },
 "ETH.ALPHA-0XA1FAA113CBE53436DF28FF0AEE54275C13B40975": {
  "decimals": 18,
  "asset_seen": [
   "midgard-mainnet"
  ],
  "decimal_source": [
   "ERC20"
  ]
 },
 "ETH.CREAM-0X2BA592F78DB6436527729929AAF6C908497CB200": {
  "decimals": 18,
  "asset_seen": [
   "midgard-mainnet"
  ],
  "decimal_source": [
   "ERC20"
  ]
 },
 "ETH.CRV-0XD533A949740BB3306D119CC777FA900BA034CD52": {
  "decimals": 18,
  "asset_seen": [
   "midgard-mainnet"
  ],
  "decimal_source": [
   "ERC20"
  ]
 },
 "ETH.DAI-0X6B175474E89094C44DA98B954EEDEAC495271D0F": {
  "decimals": 18,
  "asset_seen": [
   "mayachain-mainnet",
   "midgard-mainnet"
  ],
  "decimal_source": [
   "ERC20"
  ]
 },
 "ETH.DNA-0XEF6344DE1FCFC5F48C30234C16C1389E8CDC572C": {
  "decimals": 18,
  "asset_seen": [
   "midgard-mainnet"
  ],
  "decimal_source": [
   "ERC20"
  ]
 },
 "ETH.DODO-0X43DFC4159D86F3A37A5A4B3D4580B888AD7D4DDD": {
  "decimals": 18,
  "asset_seen": [
   "midgard-mainnet"
  ],
  "decimal_source": [
   "ERC20"
  ]
 },
 "ETH.DPI-0X1494CA1F11D487C2BBE4543E90080AEBA4BA3C2B": {
  "decimals": 18,
  "asset_seen": [
   "mayachain-mainnet",
   "midgard-mainnet"
  ],
  "decimal_source": [
   "ERC20"
  ]
 },
 "ETH.ETH": {
  "decimals": 18,
  "asset_seen": [
   "mayachain-mainnet",
   "mayachain-stagenet",
   "midgard-mainnet",
   "midgard-stagenet",
   "constants"
  ],
  "decimal_source": [
   "constants"
  ]
 },
 "ETH.FOX-0XC770EEFAD204B5180DF6A14EE197D99D808EE52D": {
  "decimals": 18,
  "asset_seen": [
   "mayachain-mainnet",
   "midgard-mainnet"
  ],
  "decimal_source": [
   "ERC20"
  ]
 },
 "ETH.GUSD-0X056FD409E1D7A124BD7017459DFEA2F387B6D5CD": {
  "decimals": 2,
  "asset_seen": [
   "mayachain-mainnet",
   "midgard-mainnet"
  ],
  "decimal_source": [
   "mayachain-mainnet",
   "ERC20"
  ]
 },
 "ETH.HEGIC-0X584BC13C7D411C00C01A62E8019472DE68768430": {
  "decimals": 18,
  "asset_seen": [
   "mayachain-mainnet",
   "midgard-mainnet"
  ],
  "decimal_source": [
   "ERC20"
  ]
 },
 "ETH.HOT-0X6C6EE5E31D828DE241282B9606C8E98EA48526E2": {
  "decimals": 18,
  "asset_seen": [
   "mayachain-mainnet",
   "midgard-mainnet"
  ],
  "decimal_source": [
   "ERC20"
  ]
 },
 "ETH.KYL-0X67B6D479C7BB412C54E03DCA8E1BC6740CE6B99C": {
  "decimals": 18,
  "asset_seen": [
   "mayachain-mainnet",
   "midgard-mainnet"
  ],
  "decimal_source": [
   "ERC20"
  ]
 },
 "ETH.LINK-0X514910771AF9CA656AF840DFF83E8264ECF986CA": {
  "decimals": 18,
  "asset_seen": [
   "midgard-mainnet"
  ],
  "decimal_source": [
   "ERC20"
  ]
 },
 "ETH.LUSD-0X5F98805A4E8BE255A32880FDEC7F6728C6568BA0": {
  "decimals": 18,
  "asset_seen": [
   "mayachain-mainnet",
   "midgard-mainnet"
  ],
  "decimal_source": [
   "ERC20"
  ]
 },
 "ETH.PERP-0XBC396689893D065F41BC2C6ECBEE5E0085233447": {
  "decimals": 18,
  "asset_seen": [
   "midgard-mainnet"
  ],
  "decimal_source": [
   "ERC20"
  ]
 },
 "ETH.RAZE-0X5EAA69B29F99C84FE5DE8200340B4E9B4AB38EAC": {
  "decimals": 18,
  "asset_seen": [
   "mayachain-mainnet",
   "midgard-mainnet"
  ],
  "decimal_source": [
   "ERC20"
  ]
 },
 "ETH.SNX-0XC011A73EE8576FB46F5E1C5751CA3B9FE0AF2A6F": {
  "decimals": 18,
  "asset_seen": [
   "mayachain-mainnet",
   "midgard-mainnet"
  ],
  "decimal_source": [
   "ERC20"
  ]
 },
 "ETH.SUSHI-0X6B3595068778DD592E39A122F4F5A5CF09C90FE2": {
  "decimals": 18,
  "asset_seen": [
   "midgard-mainnet"
  ],
  "decimal_source": [
   "ERC20"
  ]
 },
 "ETH.TGT-0X108A850856DB3F85D0269A2693D896B394C80325": {
  "decimals": 18,
  "asset_seen": [
   "mayachain-mainnet",
   "midgard-mainnet"
  ],
  "decimal_source": [
   "ERC20"
  ]
 },
 "ETH.THOR-0XA5F2211B9B8170F694421F2046281775E8468044": {
  "decimals": 18,
  "asset_seen": [
   "mayachain-mainnet",
   "midgard-mainnet"
  ],
  "decimal_source": [
   "ERC20"
  ]
 },
 "ETH.TVK-0XD084B83C305DAFD76AE3E1B4E1F1FE2ECCCB3988": {
  "decimals": 18,
  "asset_seen": [
   "midgard-mainnet"
  ],
  "decimal_source": [
   "ERC20"
  ]
 },
 "ETH.UOS-0XD13C7342E1EF687C5AD21B27C2B65D772CAB5C8C": {
  "decimals": 4,
  "asset_seen": [
   "mayachain-mainnet",
   "midgard-mainnet"
  ],
  "decimal_source": [
   "mayachain-mainnet",
   "ERC20"
  ]
 },
 "ETH.USDC-0XA0B86991C6218B36C1D19D4A2E9EB0CE3606EB48": {
  "decimals": 6,
  "asset_seen": [
   "mayachain-mainnet",
   "midgard-mainnet"
  ],
  "decimal_source": [
   "mayachain-mainnet",
   "ERC20"
  ]
 },
 "ETH.USDP-0X8E870D67F660D95D5BE530380D0EC0BD388289E1": {
  "decimals": 18,
  "asset_seen": [
   "mayachain-mainnet",
   "midgard-mainnet"
  ],
  "decimal_source": [
   "ERC20"
  ]
 },
 "ETH.USDT-0XDAC17F958D2EE523A2206206994597C13D831EC7": {
  "decimals": 6,
  "asset_seen": [
   "mayachain-mainnet",
   "mayachain-stagenet",
   "midgard-mainnet",
   "midgard-stagenet"
  ],
  "decimal_source": [
   "mayachain-mainnet",
   "mayachain-stagenet",
   "ERC20"
  ]
 },
 "ETH.VIU-0X519475B31653E46D20CD09F9FDCF3B12BDACB4F5": {
  "decimals": 18,
  "asset_seen": [
   "midgard-mainnet"
  ],
  "decimal_source": [
   "ERC20"
  ]
 },
 "ETH.WBTC-0X2260FAC5E5542A773AA44FBCFEDF7C193BC2C599": {
  "decimals": 8,
  "asset_seen": [
   "mayachain-mainnet",
   "midgard-mainnet"
  ],
  "decimal_source": [
   "ERC20"
  ]
 },
 "ETH.XDEFI-0X72B886D09C117654AB7DA13A14D603001DE0B777": {
  "decimals": 18,
  "asset_seen": [
   "mayachain-mainnet",
   "midgard-mainnet"
  ],
  "decimal_source": [
   "ERC20"
  ]
 },
 "ETH.XRUNE-0X69FA0FEE221AD11012BAB0FDB45D444D3D2CE71C": {
  "decimals": 18,
  "asset_seen": [
   "mayachain-mainnet",
   "midgard-mainnet"
  ],
  "decimal_source": [
   "ERC20"
  ]
 },
 "ETH.YFI-0X0BC529C00C6401AEF6D220BE8C6EA1667F6AD93E": {
  "decimals": 18,
  "asset_seen": [
   "mayachain-mainnet",
   "midgard-mainnet"
  ],
  "decimal_source": [
   "ERC20"
  ]
 },
 "ETH/ETH": {
  "decimals": -1,
  "asset_seen": [
   "midgard-mainnet",
   "midgard-stagenet"
  ],
  "decimal_source": []
 },
 "ETH/USDC-0XA0B86991C6218B36C1D19D4A2E9EB0CE3606EB48": {
  "decimals": 6,
  "asset_seen": [
   "midgard-mainnet"
  ],
  "decimal_source": [
   "ERC20"
  ]
 },
 "ETH/USDT-0XDAC17F958D2EE523A2206206994597C13D831EC7": {
  "decimals": 6,
  "asset_seen": [
   "midgard-mainnet"
  ],
  "decimal_source": [
   "ERC20"
  ]
 },
 "GAIA.ATOM": {
  "decimals": 6,
  "asset_seen": [
   "mayachain-mainnet",
   "mayachain-stagenet",
   "midgard-mainnet",
   "midgard-stagenet"
  ],
  "decimal_source": [
   "mayachain-mainnet",
   "mayachain-stagenet"
  ]
 },
 "GAIA/ATOM": {
  "decimals": -1,
  "asset_seen": [
   "midgard-mainnet",
   "midgard-stagenet"
  ],
  "decimal_source": []
 },
 "LTC.LTC": {
  "decimals": 8,
  "asset_seen": [
   "mayachain-mainnet",
   "midgard-mainnet",
   "midgard-stagenet",
   "constants"
  ],
  "decimal_source": [
   "constants"
  ]
 },
 "LTC/LTC": {
  "decimals": -1,
  "asset_seen": [
   "midgard-mainnet"
  ],
  "decimal_source": []
 },
 "TERRA.LUNA": {
  "decimals": -1,
  "asset_seen": [
   "midgard-mainnet",
   "midgard-stagenet"
  ],
  "decimal_source": []
 },
 "TERRA.USD": {
  "decimals": -1,
  "asset_seen": [
   "midgard-stagenet"
  ],
  "decimal_source": []
 },
 "TERRA.UST": {
  "decimals": -1,
  "asset_seen": [
   "midgard-mainnet",
   "midgard-stagenet"
  ],
  "decimal_source": []
 },
 "THOR.ATOM": {
  "decimals": -1,
  "asset_seen": [
   "midgard-mainnet",
   "midgard-stagenet"
  ],
  "decimal_source": []
 },
 "THOR.AVAX": {
  "decimals": -1,
  "asset_seen": [
   "midgard-mainnet",
   "midgard-stagenet"
  ],
  "decimal_source": []
 },
 "THOR.BCH": {
  "decimals": -1,
  "asset_seen": [
   "midgard-mainnet",
   "midgard-stagenet"
  ],
  "decimal_source": []
 },
 "THOR.BNB": {
  "decimals": -1,
  "asset_seen": [
   "midgard-mainnet",
   "midgard-stagenet"
  ],
  "decimal_source": []
 },
 "THOR.BTC": {
  "decimals": -1,
  "asset_seen": [
   "midgard-mainnet",
   "midgard-stagenet"
  ],
  "decimal_source": []
 },
 "THOR.DOGE": {
  "decimals": -1,
  "asset_seen": [
   "midgard-mainnet",
   "midgard-stagenet"
  ],
  "decimal_source": []
 },
 "THOR.ETH": {
  "decimals": -1,
  "asset_seen": [
   "midgard-mainnet",
   "midgard-stagenet"
  ],
  "decimal_source": []
 },
 "THOR.LTC": {
  "decimals": -1,
  "asset_seen": [
   "midgard-mainnet",
   "midgard-stagenet"
  ],
  "decimal_source": []
 },
 "THOR.TOR": {
  "decimals": -1,
  "asset_seen": [
   "midgard-mainnet",
   "midgard-stagenet"
  ],
  "decimal_source": []
 }
}
